{
  "aspects": ["$pre-aspect-0", "$pre-aspect-1"],
  "bucket": "$bucket",
  "component": "wiagl-components/Preamble/Tradeoff",
  "decrease": true,
  "instructions": "$decision_instructions",
  "text": "$_walkthrough-6",
  "triple_code": "pre0",
  "skip": {
    "or": [
      {
        "===" : ["$rating_pre0_skip", "$skipRatingText"] 
      },{
        "===" : ["$rating_pre1_skip", "$skipRatingText"] 
      }
    ] 
  }
}
