{
    "aspects": [
      {
        "code": "$iv_2_a_0_code",
        "image": "$iv_2_a_0_image"
      },
      {
        "code": "$iv_2_a_1_code",
        "image": "$iv_2_a_1_image"
      },
      {
        "code": "$iv_2_a_2_code",
        "image": "$iv_2_a_2_image"
      }
    ],
    "defaults": {
      "color": "$iv_2_color",
      "md": "$iv_2_text"
    },
    "code": "$iv_2_a_0_code",
    "bucket": "$iv_2_bucket",
    "instructions": "$iv_2_preamble_instructions",
    "id":"$iv_2_id",
    "component": "wiagl-components/Vignette",
    "order": 3,
    "override_scale": {"max_point": "Highest level possible", "min_point": "Lowest level possible"},
    "skip": {
      "===": [
        "$vig_at_end",
        true
      ]
    },
    "workerId": "$workerId",
    "name": "baselineB"
  }