{
  "aspects": [
    {
      "code": 29,
      "color": "$color_29",
      "rating": "$rating_29",
      "text": "$text_29"
    },
    {
      "code": 27,
      "color": "$color_27",
      "rating": "$rating_27",
      "text": "$text_27"
    },
    {
      "code": 28,
      "color": "$color_28",
      "rating": "$rating_28",
      "text": "$text_28"
    }
  ],
  "bucket": "$bucket_27",
  "component": "wiagl-components/Tradeoff",
  "scale": "$scale",
  "should_decrease": "$should_decrease",
  "triple_code": 9,
  "skip": {
    "or": [
      {
        "===" : ["$rating_27_skip", "$skipRatingText"] 
      },{
        "===" : ["$rating_28_skip", "$skipRatingText"] 
      },{
        "===" : ["$rating_29_skip", "$skipRatingText"] 
      }
    ] 
  }
}