{
    "aspects": [
      {
        "code": "$iv_1_a_0_code",
        "image": "$iv_1_a_0_image"
      },
      {
        "code": "$iv_1_a_1_code",
        "image": "$iv_1_a_1_image"
      },
      {
        "code": "$iv_1_a_2_code",
        "image": "$iv_1_a_2_image"
      }
    ],
    "defaults": {
      "color": "$iv_1_color",
      "md": "$iv_1_text"
    },
    "code": "$iv_1_a_0_code",
    "bucket": "$iv_1_bucket",
    "instructions": "$iv_1_preamble_instructions",
    "id":"$iv_1_id",
    "component": "wiagl-components/Vignette",
    "order": 2,
    "override_scale": {"max_point": "Highest level possible", "min_point": "Lowest level possible"},
    "skip": {
      "===": [
        "$vig_after_walk",
        true
      ]
    },
    "workerId": "$workerId",
    "name": "baselineB"
  }