{
  "component": "packs-components/Form",
  "n_unanswered_message": "$unanswered_message",
  "name": "baselineB",

  "schema": {
    "md": "## Questions about the survey\n\nHere are some questions about the survey.",
    "properties": {
      "possible_question": {
        "text":"In the rating questions, 0 was the 'Lowest level possible' and 100 was the 'Highest level possible.' How would you describe how you interpreted the word 'possible'?",
        "type":"string",
        "petite_image": "./images/possible_2.png",
        "size":"big"
      },
      "focus_question": {
        "text": "When you made the decisions, what were you thinking about? As a reminder, here is an example decision.",
        "type":"string",
        "petite_image": "./images/decisions_cropped.png",
        "size":"big"
      }
    },
    "type": "object"
  },
   "uiSchema": {
    "possible_question": {
      "ui:widget": "textboxAndLabel"
    },
    "focus_question":{
      "ui:widget": "textboxAndLabel"
    }
  },
  "skip": {
    "===": [
      "$vig_after_walk",
      true
    ]
  }
}
