{
    "component": "wiagl-components/TwoTables",
    "module_name" : "Household",
    "unanswered_message": "$unanswered_message",
    "HorizentalHeadersFirst": [
        "Household member",
        "Relationship",
        "Age",
        "Mental disability",
        "Physical disability",
        "Other serious health problem"
    ],
    "HorizentalHeadersSecond": [
        "Children who don’t live with you",
        "Age",
        "Mental disability",
        "Physical disability",
        "Other serious health problem"
    ],
    "verticalHeadersFirst": [
        "Person 1",
        "Person 2",
        "Person 3",
        "Person 4",
        "Person 5",
        "Person 6",
        "Person 7",
        "Person 8",
        "Person 9",
        "Person 10"
    ],
    "verticalHeadersSecond": [
        "Child 1",
        "Child 2",
        "Child 3",
        "Child 4",
        "Child 5"
    ],
    "typesFirst": {
        "Relationship": {
            "type": "select",
            "values": [
                "Spouse",
                "Partner",
                "Child",
                "Stepchild",
                "Mother",
                "Father",
                "Sister",
                "Brother",
                "Mother-in-law",
                "Father-in-law",
                "Grandparent",
                "Other relative",
                "Unrelated"
            ]
        },
        "Age": {
            "type": "number"
        },
        "Mental disability": {
            "type": "checkbox"
        },
        "Physical disability": {
            "type": "checkbox"
        },
        "Other serious health problem": {
            "type": "checkbox"
        }
    },
    "typesSecond": {
        "Age": {
            "type": "number"
        },
        "Mental disability": {
            "type": "checkbox"
        },
        "Physical disability": {
            "type": "checkbox"
        },
        "Other serious health problem": {
            "type": "checkbox"
        }
    },
    "title": "Household and other family members",
    "instructions": "**Please list all members of your household (who you live with). If you live with more than 10 people, please fill the table and check the box “I have more than 10 people in my household.”**",
    "instructionsPartB": "**Please tell us about any *other* children you have (not in the table above) who do not currently live with you. If you have more than five children who don’t live with you, please fill the table and check the box “I have more than five children who don’t live with me.”**",
    "pepoleText": "I have more than 10 people in my household.",
    "childrenText": "I have more than five children who don’t live with me.",
    "liveAlone": "I live alone"
}